<?xml version="1.0" encoding="utf-8"?>
<!-- Generator: Adobe Illustrator 18.1.1, SVG Export Plug-In . SVG Version: 6.00 Build 0)  -->
<svg version="1.1" id="Layer_1" xmlns="http://www.w3.org/2000/svg" xmlns:xlink="http://www.w3.org/1999/xlink" x="0px" y="0px"
	 width="7px" height="13px" viewBox="0 0 7 13" style="enable-background:new 0 0 7 13;" xml:space="preserve">
<style type="text/css">
	.st0{fill:#FFFFFF;}
	.st1{fill:#62A0D7;}
	.st2{fill:#282828;}
	.st3{fill:#2C2C2C;}
</style>
<polygon class="st2" points="0,13 7,6.5 0,0 "/>
</svg>
