<?xml version="1.0" encoding="utf-8"?>
<!-- Generator: Adobe Illustrator 18.1.1, SVG Export Plug-In . SVG Version: 6.00 Build 0)  -->
<svg version="1.1" id="Layer_1" xmlns="http://www.w3.org/2000/svg" xmlns:xlink="http://www.w3.org/1999/xlink" x="0px" y="0px"
	 width="20px" height="20px" viewBox="0 0 20 20" style="enable-background:new 0 0 20 20;" xml:space="preserve">
<style type="text/css">
	.st0{fill:#FFFFFF;}
	.st1{fill:#62A0D7;}
	.st2{fill:#282828;}
	.st3{fill:#2C2C2C;}
</style>
<g>
	<path class="st0" d="M10,7c1.3,0,2.4-1.1,2.4-2.4c0-1.3-1.1-2.4-2.4-2.4c-1.3,0-2.4,1.1-2.4,2.4C7.6,5.9,8.7,7,10,7z M10,3.1
		c0.8,0,1.4,0.6,1.4,1.4C11.4,5.3,10.8,6,10,6C9.2,6,8.6,5.3,8.6,4.5C8.6,3.7,9.2,3.1,10,3.1z"/>
	<path class="st0" d="M10,13c-1.3,0-2.4,1.1-2.4,2.4c0,1.3,1.1,2.4,2.4,2.4c1.3,0,2.4-1.1,2.4-2.4C12.4,14.1,11.3,13,10,13z
		 M10,16.9c-0.8,0-1.4-0.6-1.4-1.4c0-0.8,0.6-1.4,1.4-1.4c0.8,0,1.4,0.6,1.4,1.4C11.4,16.3,10.8,16.9,10,16.9z"/>
	<path class="st0" d="M12.6,8.5c0.4,0.7,1.2,1.2,2.1,1.2c0.4,0,0.8-0.1,1.2-0.3c1.2-0.7,1.6-2.2,0.9-3.3c-0.6-1.1-2.2-1.5-3.3-0.9
		c-0.6,0.3-1,0.8-1.1,1.5C12.2,7.3,12.3,7.9,12.6,8.5z M13.4,6.9C13.5,6.5,13.7,6.2,14,6c0.2-0.1,0.5-0.2,0.7-0.2
		c0.5,0,1,0.3,1.2,0.7c0.4,0.7,0.2,1.6-0.5,1.9c-0.7,0.4-1.6,0.1-1.9-0.5C13.3,7.7,13.3,7.3,13.4,6.9z"/>
	<path class="st0" d="M4.1,9.4c0.4,0.2,0.8,0.3,1.2,0.3c0.9,0,1.7-0.5,2.1-1.2C8,7.3,7.6,5.8,6.5,5.2C5.4,4.5,3.8,4.9,3.2,6.1
		C2.5,7.2,2.9,8.7,4.1,9.4z M4,6.6c0.3-0.4,0.7-0.7,1.2-0.7C5.5,5.8,5.8,5.9,6,6C6.7,6.4,6.9,7.3,6.5,8C6.1,8.6,5.2,8.9,4.6,8.5
		C3.9,8.1,3.6,7.2,4,6.6z"/>
	<path class="st0" d="M8.5,10c0,0.8,0.7,1.5,1.5,1.5s1.5-0.7,1.5-1.5c0-0.8-0.7-1.5-1.5-1.5S8.5,9.2,8.5,10z M10.5,10
		c0,0.3-0.2,0.5-0.5,0.5S9.5,10.3,9.5,10S9.7,9.5,10,9.5S10.5,9.7,10.5,10z"/>
	<path class="st0" d="M7.4,11.5c-0.6-1.1-2.2-1.5-3.3-0.9c-1.2,0.7-1.6,2.2-0.9,3.3c0.4,0.7,1.2,1.2,2.1,1.2c0.4,0,0.8-0.1,1.2-0.3
		C7.6,14.2,8,12.7,7.4,11.5z M6,14c-0.7,0.4-1.6,0.1-1.9-0.5c-0.4-0.7-0.2-1.6,0.5-1.9c0.2-0.1,0.5-0.2,0.7-0.2c0.5,0,1,0.3,1.2,0.7
		C6.9,12.7,6.7,13.6,6,14z"/>
	<path class="st0" d="M16.8,13.9c0.3-0.6,0.4-1.2,0.2-1.8c-0.2-0.6-0.6-1.1-1.1-1.5c-1.1-0.6-2.7-0.2-3.3,0.9
		c-0.7,1.2-0.3,2.6,0.9,3.3c0.4,0.2,0.8,0.3,1.2,0.3C15.6,15.2,16.4,14.7,16.8,13.9z M16,13.4c-0.4,0.7-1.3,0.9-1.9,0.5
		c-0.7-0.4-0.9-1.3-0.5-1.9c0.3-0.4,0.7-0.7,1.2-0.7c0.2,0,0.5,0.1,0.7,0.2c0.3,0.2,0.6,0.5,0.7,0.9S16.2,13.1,16,13.4z"/>
	<path class="st0" d="M20,10c0-5.5-4.5-10-10-10C4.5,0,0,4.5,0,10s4.5,10,10,10h10v-1h-5.7C17.7,17.4,20,14,20,10z M1,10
		c0-5,4-9,9-9c5,0,9,4,9,9s-4,9-9,9C5,19,1,15,1,10z"/>
</g>
</svg>
