<?xml version="1.0" encoding="utf-8"?>
<!-- Generator: Adobe Illustrator 18.1.1, SVG Export Plug-In . SVG Version: 6.00 Build 0)  -->
<svg version="1.1" id="Layer_1" xmlns="http://www.w3.org/2000/svg" xmlns:xlink="http://www.w3.org/1999/xlink" x="0px" y="0px"
	 width="14px" height="20px" viewBox="0 0 14 20" style="enable-background:new 0 0 14 20;" xml:space="preserve">
<style type="text/css">
	.st0{fill:#FFFFFF;}
	.st1{fill:#62A0D7;}
	.st2{fill:#282828;}
	.st3{fill:#2C2C2C;}
</style>
<path class="st3" d="M7,1c3.3,0,6,2.7,6,6c0,5.4-4.3,10-6,11.6C5.3,17,1,12.4,1,7C1,3.7,3.7,1,7,1 M7,0C3.1,0,0,3.1,0,7
	c0,7.2,7,13,7,13s7-5.8,7-13C14,3.1,10.9,0,7,0L7,0z"/>
</svg>
