<?xml version="1.0" standalone="no"?>
<!DOCTYPE svg PUBLIC "-//W3C//DTD SVG 1.1//EN" "http://www.w3.org/Graphics/SVG/1.1/DTD/svg11.dtd">
<svg xmlns="http://www.w3.org/2000/svg">
<metadata>Copyright (C) 2017 by original authors @ fontello.com</metadata>
<defs>
<font id="fontello" horiz-adv-x="1000" >
<font-face font-family="fontello" font-weight="400" font-stretch="normal" units-per-em="1000" ascent="850" descent="-150" />
<missing-glyph horiz-adv-x="1000" />
<glyph glyph-name="list-block" unicode="&#xe800;" d="M0 819c0 17 14 31 31 31h313c17 0 31-14 31-31v-313a31 31 0 0 0-31-31h-313a31 31 0 0 0-31 31z m313-31h-250v-250h250z m31-938h-313a31 31 0 0 0-31 31v313c0 17 14 31 31 31h313c17 0 31-14 31-31v-313a31 31 0 0 0-31-31z m-281 62h250v251h-250z m562 907c0 17 14 31 31 31h313c17 0 31-14 31-31v-313a31 31 0 0 0-31-31h-313a31 31 0 0 0-31 31z m313-31h-250v-250h250z m31-938h-313a31 31 0 0 0-31 31v313c0 17 14 31 31 31h313c17 0 31-14 31-31v-313a31 31 0 0 0-31-31z m-281 62h250v251h-250z" horiz-adv-x="1000" />

<glyph glyph-name="location-b" unicode="&#xe801;" d="M318 805c-176 0-318-150-318-337 0-106 85-266 135-351a1563 1563 0 0 1 101-151c51-65 69-71 82-71 13 0 30 6 81 71 32 41 67 95 101 151 51 86 136 245 136 352 0 185-143 336-318 336z m147-646a1067 1067 0 0 0-147-207c-22 18-82 92-147 206-77 132-120 245-120 311 0 156 120 282 267 282 148 0 268-126 268-282 0-66-45-178-121-310z" horiz-adv-x="636" />

<glyph glyph-name="star-half" unicode="&#xe802;" d="M464 832v-747l-250-132q-12-7-23-7-11 0-17 9t-6 19q0 4 1 12l48 279-203 197q-14 15-14 27 0 21 31 26l280 40 126 254q11 23 27 23z" horiz-adv-x="500" />

<glyph glyph-name="th-list" unicode="&#xe803;" d="M1000 850v-160h-1000v160h1000z m0-280v-160h-1000v160h1000z m0-280v-160h-1000v160h1000z m0-280v-160h-1000v160h1000z" horiz-adv-x="1000" />

<glyph glyph-name="mouse" unicode="&#xe804;" d="M955 34l-191 190 136 79a32 32 0 0 1-4 58l-606 242a32 32 0 0 1-42-42l242-607a32 32 0 0 1 58-4l78 136 191-191a32 32 0 0 1 45 0l93 93a32 32 0 0 1 0 46z m-115-71l-198 198a32 32 0 0 1-50-7l-67-115-190 477 476-190-115-67a32 32 0 0 1-6-50l197-198z m-693 786a32 32 0 0 1-46-45l71-71a32 32 0 0 1 46 0 32 32 0 0 1 0 45z m24-221a32 32 0 0 1-32 32h-101a32 32 0 0 1 0-64h101a32 32 0 0 1 32 32z m-13-99l-72-72a32 32 0 0 1 46-45l71 71a32 32 0 1 1-45 46z m165 251a32 32 0 0 1 32 32v101a32 32 0 0 1-64 0v-101c0-18 14-32 32-32z m122-42a32 32 0 0 1 22 10l71 71a32 32 0 0 1-45 45l-71-71a32 32 0 0 1 23-55z" horiz-adv-x="1000" />

<glyph glyph-name="auth" unicode="&#xe805;" d="M546 113a33 33 0 0 1 0-48c14-13 36-13 49 0l239 233c7 7 10 17 9 26 1 9-2-14-9-8l-239 234a35 35 0 0 1-49 0 33 33 0 0 1 0-48l181-177h-662c-19 0-12 1-12-18 0-19-7-36 12-36h663z m507 549v-677a137 137 0 0 0-139-135h-670a137 137 0 0 0-139 135v136h53v-155c0-38 40-68 79-68h678c38 0 88 30 88 68v696c0 37-50 88-88 88h-678c-39 0-79-50-79-88v-129h-53v129a137 137 0 0 0 139 135h671a137 137 0 0 0 138-135z" horiz-adv-x="1053" />

<glyph glyph-name="reg" unicode="&#xe806;" d="M948-124a26 26 0 0 0-26 27c0 101-240 225-316 237-11 2-43 7-44 127a26 26 0 0 0 8 19c1 1 59 58 72 133a26 26 0 0 0 26 22c2 1 10 11 15 31 3 19 0 36-9 44a26 26 0 0 0-9 21l1 15c4 36 14 121-33 173-28 30-72 46-133 46s-105-16-133-46c-46-53-37-137-33-174l1-14a26 26 0 0 0-9-21c-9-7-12-25-9-44s13-30 16-31a26 26 0 0 0 25-22 273 273 0 0 1 72-133c5-5 8-12 8-19 0-121-33-125-45-127-75-12-315-136-315-237a26 26 0 1 0-53 0c0 140 267 269 352 287 4 12 7 40 8 67a330 330 0 0 0-75 137 83 83 0 0 0-39 48c-11 32-12 75 11 104-5 39-16 144 46 214 38 42 96 64 172 64 76 0 134-21 172-64 62-70 51-175 46-214 23-29 23-72 11-104-8-24-23-40-39-48a332 332 0 0 0-75-137c1-27 4-55 8-67 85-19 352-147 352-287a26 26 0 0 0-27-27z" horiz-adv-x="1000" />

<glyph glyph-name="star" unicode="&#xe807;" d="M1091 477l-315-243 106-375-320 218-326-227 117 378-307 235 392 15 136 372 125-368z" horiz-adv-x="1136" />

<glyph glyph-name="lan-nav-2" unicode="&#xe811;" d="M1162 850h-905l-257-343 710-657 709 657z m-452-899l-268 531h538z m-243 588l243 243 243-243z m311 255h329l-93-236z m-369-233l-77 233h309z m-31-79l236-466-504 466z m666 0h265l-502-465z m23 57l89 225 169-225z m-791 242l81-242h-262z" horiz-adv-x="1419" />

<glyph glyph-name="lan-nav-3" unicode="&#xe812;" d="M639 832a65 65 0 0 1-45 18h-530a63 63 0 0 1-64-62v-876a63 63 0 0 1 64-62h530a63 63 0 0 1 64 62v876c0 17-7 32-19 44z m-578-768v615h536v-615z m536-61v-91a4 4 0 0 0-3-1h-530a4 4 0 0 0-3 1v91z m0 785v-48h-536v48a4 4 0 0 0 3 1h530c1 0 2-1 3-1z m-268-866c19 0 35 15 35 35 0 19-16 34-35 34-19 0-35-16-35-34 0-20 16-35 35-35z m-39 507v184h-158v-184z m157-105v52h-315v-52z m-52-106v79h-263v-79z" horiz-adv-x="658" />

<glyph glyph-name="lan-nav-4" unicode="&#xe813;" d="M1279 850h-1113a170 170 0 0 1-166-173v-654a170 170 0 0 1 166-173h1113c91 0 165 78 165 173v654c0 46-17 90-48 123a162 162 0 0 1-117 50z m0-918h-1113c-48 0-87 41-87 91v448h1287v-448a89 89 0 0 0-87-91z m87 664h-1287v81a89 89 0 0 0 87 92h1113c48 0 87-41 87-91z m-893-552c4 0 8 4 8 9v54c0 5-4 9-8 9h-265c-5 0-8-4-8-9v-54c0-3 0-5 2-6 2-2 4-3 6-3z m672 235h-79c-40 0-73-35-73-76v-83c0-41 33-76 73-76h79c41 0 73 35 73 76v83c0 41-32 76-73 76z" horiz-adv-x="1444" />

<glyph glyph-name="lan-nav-1" unicode="&#xe814;" d="M295 775a22 22 0 0 1 28 15c4 9 12 15 23 15h122a22 22 0 0 1 0 45h-122c-30 0-56-19-65-47-4-11 3-24 14-27z m301 31h180a22 22 0 0 1 0 44h-180a22 22 0 0 1 0-45z m382-823a22 22 0 0 1-22-22v-43c0-13-11-24-24-24h-65a22 22 0 0 1 0-44h65a68 68 0 0 1 68 68v43a22 22 0 0 1-22 22z m0 308a22 22 0 0 1-22-23v-180a22 22 0 0 1 44 0v180a22 22 0 0 1-22 23z m0 307a22 22 0 0 1-22-22v-180a22 22 0 0 1 44 0v180a22 22 0 0 1-22 22z m-238-704h-180a22 22 0 0 1 0-44h180a22 22 0 0 1 0 45z m192 956h-29a22 22 0 0 1 0-45h29c13 0 23-10 23-23v-79a22 22 0 0 1 45 0v79a68 68 0 0 1-68 68z m-395-606a22 22 0 0 1 31-32l258 258a22 22 0 0 1-32 32z m51 129a78 78 0 1 1-1 156 78 78 0 0 1 0-156z m0 112a33 33 0 1 0 0-67 33 33 0 0 0 0 67z m187-144a78 78 0 1 1 0-156 78 78 0 0 1 0 156z m0-111a33 33 0 1 0 0 67 33 33 0 0 0 0-67z m-340-126a64 64 0 1 1 26-121 63 63 0 0 1 31 84 64 64 0 0 1-57 37z m18-70a19 19 0 0 0-36-2 19 19 0 1 0 36 2z m121 71a154 154 0 0 1-137 89l-69 149 135 292c15 32 1 71-31 86l-4 2a64 64 0 0 1-86-32l-88-189-88 189a65 65 0 0 1-86 32l-4-2a65 65 0 0 1-31-86l135-292-69-149a154 154 0 0 1-62-293 154 154 0 0 1 205 78l1-4a154 154 0 0 1 140-88 154 154 0 0 1 139 218z m-151 568a20 20 0 0 0 27 10l3-2c10-5 15-17 10-27l-120-258-24 53z m-170-678a109 109 0 1 0-90 155c10-1 19 4 23 12l59 129 25-53-44-95c-4-8-2-18 5-25a110 110 0 0 0 22-124z m41 107a152 152 0 0 1-22 36l22 47 22-47c-9-11-16-23-22-36z m187-160a110 110 0 0 0-123 176 22 22 0 0 1 5 25l-238 511a20 20 0 0 0 10 27l4 1a20 20 0 0 0 27-9l237-511c4-9 13-14 22-13 3 1 7 1 10 1a110 110 0 0 0 46-209z m-300 156a64 64 0 1 1-54-116 64 64 0 0 1 54 116z m-10-66a19 19 0 1 0-35 16 19 19 0 0 0 35-16z" horiz-adv-x="1000" />

<glyph glyph-name="lan-nav-5" unicode="&#xe815;" d="M276-107h-236v343h236z m-271 377v-412h306v412z m1000-377h-236v448h236z m-271 484v-519h306v519z m-93-483h-236v601h236z m-271 636v-672h306v672z m531 55c6-10 15-17 27-19l27-4-20-19c-8-8-12-19-10-31l5-27-24 13a36 36 0 0 1-33 0l-24-13 5 27c2 12-2 23-10 31l-20 19 27 4c11 2 21 9 26 19l12 25z m-55 16l-97-14 70-69-16-97 87 46 86-46-16 97 70 69-97 14-43 88z m-310 137c6-10 15-18 27-19l27-4-20-19c-8-8-12-20-10-31l5-27-24 13c-6 2-11 4-16 4-6 0-12-2-17-4l-24-13 5 27c2 11-2 23-11 31l-19 19 27 4c11 1 21 9 26 19l12 25z m-55 16l-97-15 70-68-16-97 87 46 86-46-16 97 70 68-97 15-44 88z m-316-272c5-10 15-17 26-19l27-4-19-19c-8-8-12-20-10-31l4-27-24 13c-5 3-10 4-16 4-6 0-11-1-16-4l-24-13 4 27c2 11-2 23-10 31l-19 19 27 4c11 2 21 9 26 19l12 24z m-56 16l-97-15 71-68-17-97 87 46 87-46-17 97 70 68-97 15-43 88z m167-605h-236v343h236z m-271 377v-412h306v412z m1000-377h-236v448h236z m-271 483v-518h306v518z m-93-483h-236v602h236z m-271 637v-672h306v672z m531 55c6-10 15-17 27-19l27-4-20-19c-8-8-12-20-10-31l5-27-24 13a36 36 0 0 1-33 0l-24-13 5 27c2 11-2 23-10 31l-20 19 27 4c11 2 21 9 26 19l12 24z m-55 16l-97-15 70-68-16-97 87 46 86-46-16 97 70 68-97 15-43 88z m-310 137c6-11 15-18 27-19l27-4-20-19c-8-8-12-20-10-31l5-27-24 12a33 33 0 0 1-33 0l-24-12 5 27c2 11-2 23-11 31l-19 19 27 4c11 1 21 8 26 19l12 24z m-55 15l-97-14 70-69-16-97 87 46 86-46-16 97 70 69-97 14-44 89z m-316-271c5-10 15-17 26-19l27-4-19-19c-8-8-12-20-10-31l4-27-24 13c-5 3-10 4-16 4-6 0-11-1-16-4l-24-13 4 27c2 11-2 23-10 31l-19 19 27 4c11 2 21 9 26 19l12 24z m-56 16l-97-15 71-68-17-97 87 46 87-46-17 97 70 68-97 15-43 88z" horiz-adv-x="1045" />

<glyph glyph-name="view-map" unicode="&#xe816;" d="M350 800c165 0 300-135 300-300 0-270-215-500-300-580-85 80-300 310-300 580 0 165 135 300 300 300m0 50c-195 0-350-155-350-350 0-360 350-650 350-650s350 290 350 650c0 195-155 350-350 350l0 0z" horiz-adv-x="700" />

<glyph glyph-name="view-list" unicode="&#xe817;" d="M969-150h-938c-18 0-31 12-31 31s13 31 31 31h938c19 0 31-12 31-31s-12-31-31-31z m0 313h-938c-18 0-31 12-31 31s13 31 31 31h938c19 0 31-12 31-31s-12-31-31-31z m0 312h-938c-18 0-31 13-31 31s13 32 31 32h938c19 0 31-13 31-32s-12-31-31-31z m0 313h-938c-18 0-31 12-31 31s13 31 31 31h938c19 0 31-12 31-31s-12-31-31-31z" horiz-adv-x="1000" />

<glyph glyph-name="view-standart" unicode="&#xe818;" d="M344 850h-313c-18 0-31-12-31-31v-313c0-18 13-31 31-31h313c19 0 31 13 31 31v313c0 19-12 31-31 31z m-281-312v250h250v-250h-250z m281-313h-313c-18 0-31-12-31-31v-313c0-19 13-31 31-31h313c19 0 31 12 31 31v313c0 19-12 31-31 31z m-31-313h-250v251h250v-251z m656 938h-313c-18 0-31-12-31-31v-313c0-18 13-31 31-31h313c19 0 31 13 31 31v313c0 19-12 31-31 31z m-281-312v250h250v-250h-250z m281-313h-313c-18 0-31-12-31-31v-313c0-19 13-31 31-31h313c19 0 31 12 31 31v313c0 19-12 31-31 31z m-31-313h-250v251h250v-251z" horiz-adv-x="1000" />
</font>
</defs>
</svg>